<svg xmlns="http://www.w3.org/2000/svg" version="1.1" width="1440" height="560" preserveAspectRatio="none"
     viewBox="0 0 1440 560">
    <g mask="url(&quot;#SvgjsMask1011&quot;)" fill="none">
        <rect width="1440" height="560" x="0" y="0" fill="rgba(23, 30, 67, 1)"></rect>
        <path d="M1464 560L0 560 L0 296.95Q55.52 280.47, 72 335.99Q123.5 267.49, 192 318.98Q209.45 264.44, 264 281.89Q332.27 230.16, 384 298.44Q470.57 265.01, 504 351.58Q548.82 276.39, 624 321.21Q644.92 270.13, 696 291.06Q737.78 260.84, 768 302.61Q836.26 250.88, 888 319.14Q955.74 266.88, 1008 334.61Q1063.59 318.19, 1080 373.78Q1081.17 302.95, 1152 304.12Q1201.62 233.74, 1272 283.36Q1327.64 267, 1344 322.65Q1427.06 285.7, 1464 368.76z" fill="rgba(36, 47, 105, 1)"></path>
        <path d="M1464 560L0 560 L0 377.23Q52.13 309.36, 120 361.49Q220.76 342.25, 240 443.02Q268.56 351.58, 360 380.14Q405.01 305.15, 480 350.16Q521.77 319.94, 552 361.71Q596.69 334.4, 624 379.09Q685.26 368.35, 696 429.61Q740.68 354.29, 816 398.97Q851.95 314.92, 936 350.87Q982.84 325.71, 1008 372.54Q1078.61 323.14, 1128 393.75Q1202.5 348.25, 1248 422.75Q1293.72 396.47, 1320 442.18Q1325.05 375.23, 1392 380.27Q1415.98 332.25, 1464 356.22z" fill="rgba(63, 81, 181, 1)"></path>
        <path d="M1488 560L0 560 L0 513.1Q2.77 443.87, 72 446.64Q98.93 401.56, 144 428.49Q227.34 391.83, 264 475.17Q313.05 452.22, 336 501.27Q389.06 434.32, 456 487.38Q506.64 418.02, 576 468.67Q592.63 413.3, 648 429.93Q689.2 399.13, 720 440.33Q765.98 414.31, 792 460.29Q858.52 406.81, 912 473.33Q957.17 398.5, 1032 443.66Q1092.16 431.83, 1104 491.99Q1122.45 438.44, 1176 456.89Q1219.83 380.72, 1296 424.54Q1385.52 394.06, 1416 483.58Q1441.4 436.99, 1488 462.39z" fill="rgba(96, 112, 199, 1)"></path>
        <path d="M1464 560L0 560 L0 497.93Q101.02 478.95, 120 579.96Q146.38 486.34, 240 512.71Q318.04 470.75, 360 548.8Q412.91 529.71, 432 582.63Q446.34 476.97, 552 491.3Q594.59 461.88, 624 504.47Q719.71 480.18, 744 575.9Q785.9 497.8, 864 539.7Q889.54 493.24, 936 518.78Q958.27 469.05, 1008 491.32Q1052.56 463.88, 1080 508.43Q1121.97 478.4, 1152 520.38Q1200.08 496.46, 1224 544.54Q1300.74 501.28, 1344 578.02Q1367.4 481.42, 1464 504.83z" fill="white"></path>
    </g>
    <defs>
        <mask id="SvgjsMask1011">
            <rect width="1440" height="560" fill="#ffffff"></rect>
        </mask>
    </defs>
</svg>